ProjetoCompleto/simulation/qsim/projeto_1.msim.vcd
$comment
	File created using the following command:
		vcd file projeto_1.msim.vcd -direction
$end
$date
	Thu Apr 07 21:58:09 2022
$end
$version
	ModelSim Version 10.5b
$end
$timescale
	1ps
$end

$scope module projeto_1_vlg_vec_tst $end
$var reg 1 ! S0 $end
$var reg 1 " S1 $end
$var reg 1 # S2 $end
$var wire 1 $ HEX0A $end
$var wire 1 % HEX0B $end
$var wire 1 & HEX0C $end
$var wire 1 ' HEX0D $end
$var wire 1 ( HEX0E $end
$var wire 1 ) HEX0F $end
$var wire 1 * HEX0G $end
$var wire 1 + HEX1A $end
$var wire 1 , HEX1B $end
$var wire 1 - HEX1C $end
$var wire 1 . HEX1D $end
$var wire 1 / HEX1E $end
$var wire 1 0 HEX1F $end
$var wire 1 1 HEX1G $end
$var wire 1 2 L0 $end
$var wire 1 3 L1 $end
$var wire 1 4 L2 $end
$var wire 1 5 L3 $end

$scope module i1 $end
$var wire 1 6 gnd $end
$var wire 1 7 vcc $end
$var wire 1 8 unknown $end
$var tri1 1 9 devclrn $end
$var tri1 1 : devpor $end
$var tri1 1 ; devoe $end
$var wire 1 < ~QUARTUS_CREATED_GND~I_combout $end
$var wire 1 = ~QUARTUS_CREATED_UNVM~~busy $end
$var wire 1 > ~QUARTUS_CREATED_ADC1~~eoc $end
$var wire 1 ? ~QUARTUS_CREATED_ADC2~~eoc $end
$var wire 1 @ L3~output_o $end
$var wire 1 A L2~output_o $end
$var wire 1 B L1~output_o $end
$var wire 1 C L0~output_o $end
$var wire 1 D HEX0A~output_o $end
$var wire 1 E HEX0B~output_o $end
$var wire 1 F HEX0C~output_o $end
$var wire 1 G HEX0D~output_o $end
$var wire 1 H HEX0E~output_o $end
$var wire 1 I HEX0F~output_o $end
$var wire 1 J HEX0G~output_o $end
$var wire 1 K HEX1A~output_o $end
$var wire 1 L HEX1B~output_o $end
$var wire 1 M HEX1C~output_o $end
$var wire 1 N HEX1D~output_o $end
$var wire 1 O HEX1E~output_o $end
$var wire 1 P HEX1F~output_o $end
$var wire 1 Q HEX1G~output_o $end
$var wire 1 R S1~input_o $end
$var wire 1 S S2~input_o $end
$var wire 1 T S0~input_o $end
$var wire 1 U inst1|inst100|sub|79~combout $end
$var wire 1 V inst|inst16~combout $end
$var wire 1 W inst1|inst5|sub|81~0_combout $end
$var wire 1 X inst1|inst8|sub|81~0_combout $end
$var wire 1 Y inst|inst17~combout $end
$var wire 1 Z inst1|inst8|sub|81~1_combout $end
$var wire 1 [ inst|inst24~0_combout $end
$var wire 1 \ inst|inst9~combout $end
$var wire 1 ] inst|inst14~combout $end
$var wire 1 ^ inst2|80~0_combout $end
$var wire 1 _ inst2|83~0_combout $end
$var wire 1 ` inst2|84~0_combout $end
$upscope $end
$upscope $end
$enddefinitions $end
#0
$dumpvars
0!
0"
0#
1$
1%
1&
0'
0(
1)
0*
1+
1,
1-
0.
0/
10
01
02
13
04
15
06
17
x8
19
1:
1;
0<
z=
z>
z?
1@
0A
1B
0C
1D
1E
1F
0G
0H
1I
0J
1K
1L
1M
0N
0O
1P
0Q
0R
0S
0T
0U
0V
0W
0X
1Y
0Z
1[
0\
0]
0^
1_
1`
$end
#100000
1!
1T
0`
1^
1U
1\
0[
0Y
1X
0M
1C
0D
0L
0F
0I
1H
0@
0K
1O
1/
0+
05
1(
0)
0&
0,
0$
12
0-
#200000
1"
0!
0T
1R
0_
0^
1W
1Z
0\
1[
1F
1I
0H
0E
0B
1K
1Q
1N
1.
11
1+
03
0%
0(
1)
1&
#300000
1!
1T
1`
1_
1^
0W
0X
1M
0C
1B
0K
0Q
0N
0O
0/
0.
01
0+
13
02
1-
#400000
1#
0"
0!
0T
0R
1S
0`
0_
0^
1W
1X
0M
1C
0B
1K
1Q
1N
1O
1/
1.
11
1+
03
12
0-
#500000
1!
1T
1]
0[
0F
0I
1J
1*
0)
0&
#600000
1"
0!
0T
1R
1`
1_
1^
0W
0Z
0]
1\
0X
1M
0C
1H
0J
1E
1B
0K
0Q
0N
0O
0/
0.
01
0+
13
1%
0*
1(
02
1-
#700000
1!
1T
0`
1W
1]
1[
1Y
1X
1V
0P
0M
1A
1G
1C
1D
1L
1F
1I
1J
0B
1O
1/
03
1*
1)
1&
1,
1$
12
1'
14
0-
00
#800000
0#
0"
0!
0T
0R
0S
1`
0^
0W
0U
0]
0\
0X
0V
1P
1M
0A
0G
0C
0H
0J
1@
1B
1K
0O
0/
1+
13
15
0*
0(
02
0'
04
1-
10
#900000
1!
1T
0`
1^
1U
1\
0[
0Y
1X
0M
1C
0D
0L
0F
0I
1H
0@
0K
1O
1/
0+
05
1(
0)
0&
0,
0$
12
0-
